%TF.GenerationSoftware,KiCad,Pcbnew,(5.1.10)-1*%
%TF.CreationDate,2021-08-07T13:37:59-04:00*%
%TF.ProjectId,unidapt,6d6f6465-6c6a-42d3-9230-32316d2d6164,rev?*%
%TF.SameCoordinates,Original*%
%TF.FileFunction,Copper,L2,Bot*%
%TF.FilePolarity,Positive*%
%FSLAX46Y46*%
G04 Gerber Fmt 4.6, Leading zero omitted, Abs format (unit mm)*
G04 Created by KiCad (PCBNEW (5.1.10)-1) date 2021-08-07 13:37:59*
%MOMM*%
%LPD*%
G01*
G04 APERTURE LIST*
%TA.AperFunction,ComponentPad*%
%ADD10O,1.700000X1.700000*%
%TD*%
%TA.AperFunction,ComponentPad*%
%ADD11R,1.700000X1.700000*%
%TD*%
%TA.AperFunction,ComponentPad*%
%ADD12C,1.500000*%
%TD*%
%TA.AperFunction,WasherPad*%
%ADD13C,5.000000*%
%TD*%
%TA.AperFunction,ComponentPad*%
%ADD14C,1.800000*%
%TD*%
%TA.AperFunction,ComponentPad*%
%ADD15R,1.800000X1.800000*%
%TD*%
%TA.AperFunction,ViaPad*%
%ADD16C,0.800000*%
%TD*%
%TA.AperFunction,Conductor*%
%ADD17C,0.250000*%
%TD*%
G04 APERTURE END LIST*
D10*
%TO.P,J3,12*%
%TO.N,Net-(J3-Pad12)*%
X140810000Y-52000000D03*
%TO.P,J3,11*%
%TO.N,Net-(J3-Pad11)*%
X143350000Y-52000000D03*
%TO.P,J3,10*%
%TO.N,Net-(J3-Pad10)*%
X145890000Y-52000000D03*
%TO.P,J3,9*%
%TO.N,Net-(J1-Pad25)*%
X148430000Y-52000000D03*
%TO.P,J3,8*%
%TO.N,Net-(J1-Pad24)*%
X150970000Y-52000000D03*
%TO.P,J3,7*%
%TO.N,Net-(J1-Pad23)*%
X153510000Y-52000000D03*
%TO.P,J3,6*%
%TO.N,Net-(J1-Pad22)*%
X156050000Y-52000000D03*
%TO.P,J3,5*%
%TO.N,Net-(J1-Pad21)*%
X158590000Y-52000000D03*
%TO.P,J3,4*%
%TO.N,Net-(J1-Pad20)*%
X161130000Y-52000000D03*
%TO.P,J3,3*%
%TO.N,Net-(J1-Pad19)*%
X163670000Y-52000000D03*
%TO.P,J3,2*%
%TO.N,Net-(J1-Pad18)*%
X166210000Y-52000000D03*
D11*
%TO.P,J3,1*%
%TO.N,Net-(J1-Pad17)*%
X168750000Y-52000000D03*
%TD*%
D10*
%TO.P,J2,16*%
%TO.N,Net-(J1-Pad16)*%
X130650000Y-47750000D03*
%TO.P,J2,15*%
%TO.N,Net-(J1-Pad15)*%
X133190000Y-47750000D03*
%TO.P,J2,14*%
%TO.N,Net-(J1-Pad14)*%
X135730000Y-47750000D03*
%TO.P,J2,13*%
%TO.N,Net-(J1-Pad13)*%
X138270000Y-47750000D03*
%TO.P,J2,12*%
%TO.N,Net-(J1-Pad12)*%
X140810000Y-47750000D03*
%TO.P,J2,11*%
%TO.N,Net-(J1-Pad11)*%
X143350000Y-47750000D03*
%TO.P,J2,10*%
%TO.N,Net-(J1-Pad10)*%
X145890000Y-47750000D03*
%TO.P,J2,9*%
%TO.N,Net-(J1-Pad9)*%
X148430000Y-47750000D03*
%TO.P,J2,8*%
%TO.N,Net-(J1-Pad8)*%
X150970000Y-47750000D03*
%TO.P,J2,7*%
%TO.N,Net-(J1-Pad7)*%
X153510000Y-47750000D03*
%TO.P,J2,6*%
%TO.N,Net-(J1-Pad6)*%
X156050000Y-47750000D03*
%TO.P,J2,5*%
%TO.N,Net-(J1-Pad5)*%
X158590000Y-47750000D03*
%TO.P,J2,4*%
%TO.N,Net-(J1-Pad4)*%
X161130000Y-47750000D03*
%TO.P,J2,3*%
%TO.N,Net-(J1-Pad3)*%
X163670000Y-47750000D03*
%TO.P,J2,2*%
%TO.N,Net-(J1-Pad2)*%
X166210000Y-47750000D03*
D11*
%TO.P,J2,1*%
%TO.N,Net-(J1-Pad1)*%
X168750000Y-47750000D03*
%TD*%
D12*
%TO.P,TP2,1*%
%TO.N,+5V*%
X105750000Y-62250000D03*
%TD*%
%TO.P,TP1,1*%
%TO.N,+5V*%
X106000000Y-43250000D03*
%TD*%
D10*
%TO.P,J4,4*%
%TO.N,Net-(D1-Pad1)*%
X161130000Y-42250000D03*
%TO.P,J4,3*%
%TO.N,Net-(J4-Pad3)*%
X163670000Y-42250000D03*
%TO.P,J4,2*%
%TO.N,Net-(D3-Pad1)*%
X166210000Y-42250000D03*
D11*
%TO.P,J4,1*%
%TO.N,Net-(D2-Pad1)*%
X168750000Y-42250000D03*
%TD*%
D13*
%TO.P,J1,*%
%TO.N,*%
X167200000Y-73500000D03*
X106450000Y-73500000D03*
%TD*%
D14*
%TO.P,D3,2*%
%TO.N,Net-(D3-Pad2)*%
X155540000Y-43250000D03*
D15*
%TO.P,D3,1*%
%TO.N,Net-(D3-Pad1)*%
X153000000Y-43250000D03*
%TD*%
D14*
%TO.P,D2,2*%
%TO.N,Net-(D2-Pad2)*%
X137790000Y-43250000D03*
D15*
%TO.P,D2,1*%
%TO.N,Net-(D2-Pad1)*%
X135250000Y-43250000D03*
%TD*%
D14*
%TO.P,D1,2*%
%TO.N,Net-(D1-Pad2)*%
X119540000Y-43250000D03*
D15*
%TO.P,D1,1*%
%TO.N,Net-(D1-Pad1)*%
X117000000Y-43250000D03*
%TD*%
D16*
%TO.N,Net-(J1-Pad16)*%
X130719000Y-70061900D03*
%TO.N,Net-(J1-Pad15)*%
X132838600Y-70081900D03*
%TO.N,Net-(J1-Pad14)*%
X135007500Y-70062100D03*
%TO.N,Net-(J1-Pad13)*%
X137636000Y-70095600D03*
%TO.N,Net-(J1-Pad12)*%
X139275000Y-70064300D03*
%TO.N,Net-(J1-Pad11)*%
X141900300Y-70061500D03*
%TO.N,Net-(J1-Pad10)*%
X143501000Y-70078800D03*
%TO.N,Net-(J1-Pad8)*%
X147785800Y-70073100D03*
%TO.N,Net-(J1-Pad7)*%
X149853200Y-70070900D03*
%TO.N,Net-(J1-Pad6)*%
X151489500Y-70097600D03*
%TO.N,Net-(J1-Pad5)*%
X154487700Y-67642500D03*
%TO.N,Net-(J1-Pad2)*%
X161644500Y-69533400D03*
%TO.N,Net-(J1-Pad1)*%
X163158500Y-69678700D03*
%TD*%
D17*
%TO.N,Net-(D2-Pad1)*%
X168750000Y-42250000D02*
X167574700Y-42250000D01*
X135250000Y-43250000D02*
X136475300Y-43250000D01*
X136475300Y-43250000D02*
X136475300Y-42790500D01*
X136475300Y-42790500D02*
X138652300Y-40613500D01*
X138652300Y-40613500D02*
X166305500Y-40613500D01*
X166305500Y-40613500D02*
X167574700Y-41882700D01*
X167574700Y-41882700D02*
X167574700Y-42250000D01*
%TO.N,Net-(D3-Pad1)*%
X166210000Y-42250000D02*
X165034700Y-42250000D01*
X153000000Y-43250000D02*
X154225300Y-43250000D01*
X154225300Y-43250000D02*
X154225300Y-42790500D01*
X154225300Y-42790500D02*
X155941100Y-41074700D01*
X155941100Y-41074700D02*
X164226800Y-41074700D01*
X164226800Y-41074700D02*
X165034700Y-41882600D01*
X165034700Y-41882600D02*
X165034700Y-42250000D01*
%TO.N,Net-(J1-Pad16)*%
X130650000Y-47750000D02*
X130650000Y-69992900D01*
X130650000Y-69992900D02*
X130719000Y-70061900D01*
%TO.N,Net-(J1-Pad15)*%
X133190000Y-47750000D02*
X133190000Y-69730500D01*
X133190000Y-69730500D02*
X132838600Y-70081900D01*
%TO.N,Net-(J1-Pad14)*%
X135730000Y-47750000D02*
X135730000Y-48925300D01*
X135730000Y-48925300D02*
X135007500Y-49647800D01*
X135007500Y-49647800D02*
X135007500Y-70062100D01*
%TO.N,Net-(J1-Pad13)*%
X138270000Y-47750000D02*
X138270000Y-48925300D01*
X138270000Y-48925300D02*
X137636000Y-49559300D01*
X137636000Y-49559300D02*
X137636000Y-70095600D01*
%TO.N,Net-(J1-Pad12)*%
X140810000Y-48925300D02*
X139275000Y-50460300D01*
X139275000Y-50460300D02*
X139275000Y-70064300D01*
X140810000Y-47750000D02*
X140810000Y-48925300D01*
%TO.N,Net-(J1-Pad11)*%
X143350000Y-48925300D02*
X142174700Y-50100600D01*
X142174700Y-50100600D02*
X142174700Y-69787100D01*
X142174700Y-69787100D02*
X141900300Y-70061500D01*
X143350000Y-47750000D02*
X143350000Y-48925300D01*
%TO.N,Net-(J1-Pad10)*%
X145890000Y-48925300D02*
X144714700Y-50100600D01*
X144714700Y-50100600D02*
X144714700Y-68865100D01*
X144714700Y-68865100D02*
X143501000Y-70078800D01*
X145890000Y-47750000D02*
X145890000Y-48925300D01*
%TO.N,Net-(J1-Pad8)*%
X150970000Y-48925300D02*
X149794700Y-50100600D01*
X149794700Y-50100600D02*
X149794700Y-64678500D01*
X149794700Y-64678500D02*
X147785800Y-66687400D01*
X147785800Y-66687400D02*
X147785800Y-70073100D01*
X150970000Y-47750000D02*
X150970000Y-48925300D01*
%TO.N,Net-(J1-Pad7)*%
X153510000Y-47750000D02*
X153510000Y-48925300D01*
X153510000Y-48925300D02*
X152334700Y-50100600D01*
X152334700Y-50100600D02*
X152334700Y-62775400D01*
X152334700Y-62775400D02*
X149853200Y-65256900D01*
X149853200Y-65256900D02*
X149853200Y-70070900D01*
%TO.N,Net-(J1-Pad6)*%
X151489500Y-70097600D02*
X151489500Y-64956200D01*
X151489500Y-64956200D02*
X154874700Y-61571000D01*
X154874700Y-61571000D02*
X154874700Y-50100600D01*
X154874700Y-50100600D02*
X156050000Y-48925300D01*
X156050000Y-47750000D02*
X156050000Y-48925300D01*
%TO.N,Net-(J1-Pad5)*%
X158590000Y-47750000D02*
X158590000Y-48925300D01*
X154487700Y-67642500D02*
X157414700Y-64715500D01*
X157414700Y-64715500D02*
X157414700Y-50100600D01*
X157414700Y-50100600D02*
X158590000Y-48925300D01*
%TO.N,Net-(J1-Pad2)*%
X166210000Y-47750000D02*
X166210000Y-48925300D01*
X161644500Y-69533400D02*
X165034700Y-66143200D01*
X165034700Y-66143200D02*
X165034700Y-50100600D01*
X165034700Y-50100600D02*
X166210000Y-48925300D01*
%TO.N,Net-(J1-Pad1)*%
X168750000Y-47750000D02*
X168750000Y-48925300D01*
X163158500Y-69678700D02*
X167574700Y-65262500D01*
X167574700Y-65262500D02*
X167574700Y-50100600D01*
X167574700Y-50100600D02*
X168750000Y-48925300D01*
%TO.N,+5V*%
X106000000Y-43250000D02*
X105750000Y-43500000D01*
X105750000Y-43500000D02*
X105750000Y-62250000D01*
%TD*%
M02*
